<svg width="17" height="21" viewBox="0 0 17 21" fill="none" xmlns="http://www.w3.org/2000/svg">
<path fill-rule="evenodd" clip-rule="evenodd" d="M2.49678 6.02075C2.56674 4.90631 3.05878 3.86042 3.87274 3.096C4.68671 2.33158 5.7614 1.90609 6.87803 1.90617H7.45824V1.12492C7.45824 0.848651 7.56799 0.583699 7.76334 0.388349C7.95869 0.192999 8.22364 0.083252 8.49991 0.083252C8.77617 0.083252 9.04113 0.192999 9.23648 0.388349C9.43183 0.583699 9.54157 0.848651 9.54157 1.12492V1.90617H10.1218C11.2384 1.90609 12.3131 2.33158 13.1271 3.096C13.941 3.86042 14.4331 4.90631 14.503 6.02075L14.7332 9.702C14.821 11.1056 15.2923 12.4582 16.0957 13.6124C16.2617 13.851 16.3632 14.1285 16.3902 14.418C16.4172 14.7074 16.3688 14.9989 16.2498 15.264C16.1308 15.5292 15.9452 15.7591 15.711 15.9313C15.4768 16.1035 15.2021 16.2122 14.9134 16.2468L11.3645 16.6718V17.7916C11.3645 18.5513 11.0627 19.2799 10.5255 19.8172C9.98826 20.3544 9.25964 20.6562 8.49991 20.6562C7.74017 20.6562 7.01155 20.3544 6.47434 19.8172C5.93713 19.2799 5.63532 18.5513 5.63532 17.7916V16.6718L2.08637 16.2458C1.79792 16.2111 1.52335 16.1024 1.28933 15.9302C1.05531 15.7581 0.869787 15.5283 0.750794 15.2633C0.631802 14.9983 0.583383 14.707 0.610241 14.4177C0.637099 14.1284 0.738322 13.851 0.904074 13.6124C1.70751 12.4582 2.17879 11.1056 2.26657 9.702L2.49678 6.02075ZM6.87803 3.46867C6.15884 3.46858 5.46665 3.7426 4.94238 4.23493C4.41812 4.72726 4.10121 5.40089 4.05616 6.11867L3.82699 9.79992C3.7211 11.4884 3.15399 13.1155 2.18741 14.5041C2.17539 14.5213 2.16805 14.5414 2.16609 14.5623C2.16413 14.5833 2.16762 14.6044 2.17621 14.6236C2.18481 14.6427 2.19823 14.6594 2.21515 14.6718C2.23208 14.6843 2.25195 14.6922 2.27282 14.6947L6.16553 15.1624C7.71657 15.3478 9.28324 15.3478 10.8343 15.1624L14.727 14.6947C14.7479 14.6922 14.7677 14.6843 14.7847 14.6718C14.8016 14.6594 14.815 14.6427 14.8236 14.6236C14.8322 14.6044 14.8357 14.5833 14.8337 14.5623C14.8318 14.5414 14.8244 14.5213 14.8124 14.5041C13.8461 13.1155 13.2794 11.4883 13.1739 9.79992L12.9437 6.11867C12.8986 5.40089 12.5817 4.72726 12.0574 4.23493C11.5332 3.7426 10.841 3.46858 10.1218 3.46867H6.87803ZM8.49991 19.0937C7.78116 19.0937 7.19782 18.5103 7.19782 17.7916V17.0103H9.80199V17.7916C9.80199 18.5103 9.21866 19.0937 8.49991 19.0937Z" fill="#131966"/>
</svg>
