<svg width="10" height="10" viewBox="0 0 10 10" fill="none" xmlns="http://www.w3.org/2000/svg">
<path d="M3.33366 1.25C3.54199 1.25 4.37533 3.125 4.37533 3.33333C4.37533 3.75 3.75033 4.16667 3.54199 4.58333C3.33366 5 3.75033 5.41667 4.16699 5.83333C4.33128 5.99763 5.00033 6.66667 5.41699 6.45833C5.83366 6.25 6.25033 5.625 6.66699 5.625C6.87533 5.625 8.75033 6.45833 8.75033 6.66667C8.75033 7.5 8.12533 8.125 7.50033 8.33333C6.87533 8.54167 6.45866 8.54167 5.62533 8.33333C4.79199 8.125 4.16699 7.91667 3.12533 6.875C2.08366 5.83333 1.87533 5.20833 1.66699 4.375C1.45866 3.54167 1.45866 3.125 1.66699 2.5C1.87533 1.875 2.50033 1.25 3.33366 1.25Z" stroke="white" stroke-width="0.833333" stroke-linecap="round" stroke-linejoin="round"/>
<path d="M5.83301 2.93506C6.10834 3.06143 6.3568 3.23637 6.56734 3.44889C6.77242 3.65588 6.94159 3.89853 7.06467 4.16671" stroke="white" stroke-width="0.833333" stroke-linecap="round" stroke-linejoin="round"/>
<path d="M8.645 3.74997C8.49475 3.16633 8.19046 2.64455 7.778 2.23059C7.36267 1.81376 6.83771 1.50625 6.25 1.35498" stroke="white" stroke-width="0.833333" stroke-linecap="round" stroke-linejoin="round"/>
</svg>
