<svg width="25" height="25" viewBox="0 0 25 25" fill="none" xmlns="http://www.w3.org/2000/svg">
<path d="M22.7355 7.16253C22.7022 7.09856 22.6567 7.04175 22.6014 6.99537C22.5462 6.94898 22.4823 6.91392 22.4135 6.8922C22.3446 6.87047 22.2722 6.86251 22.2003 6.86877C22.1283 6.87502 22.0583 6.89537 21.9943 6.92865C21.9303 6.96194 21.8734 7.00749 21.827 7.06272C21.7807 7.11795 21.7457 7.18176 21.724 7.2505C21.7024 7.31925 21.6945 7.39158 21.7009 7.46336C21.7073 7.53513 21.7278 7.60495 21.7613 7.6688C22.7921 9.63259 23.1655 11.8743 22.827 14.0653C22.4884 16.2563 21.4556 18.2815 19.8799 19.8441C15.8107 23.9046 9.18968 23.9054 5.11959 19.8441C5.04279 19.7674 4.94492 19.7151 4.83834 19.6939C4.73177 19.6727 4.62129 19.6836 4.52089 19.7251C4.42049 19.7666 4.33469 19.8369 4.27434 19.9271C4.214 20.0173 4.18182 20.1233 4.18188 20.2318V23.0047C4.18188 23.1501 4.23976 23.2895 4.34278 23.3923C4.44579 23.4952 4.58551 23.5529 4.7312 23.5529C4.87689 23.5529 5.01661 23.4952 5.11963 23.3923C5.22264 23.2895 5.28052 23.1501 5.28052 23.0047V21.4593C7.49871 23.2303 10.2929 24.1237 13.1292 23.9687C15.9656 23.8138 18.6454 22.6214 20.6567 20.6194C24.2358 17.0472 25.0714 11.6393 22.7355 7.16253Z" fill="#F18929"/>
<path d="M5.11972 5.1129C6.08884 4.14552 7.2394 3.37814 8.50569 2.85459C9.77199 2.33104 11.1292 2.06157 12.4999 2.06157C13.8705 2.06157 15.2277 2.33104 16.494 2.85459C17.7603 3.37814 18.9109 4.14552 19.88 5.1129C19.9568 5.18964 20.0547 5.24191 20.1613 5.26311C20.2678 5.2843 20.3783 5.27346 20.4787 5.23196C20.5791 5.19046 20.6649 5.12016 20.7253 5.02996C20.7856 4.93977 20.8178 4.83373 20.8177 4.72527V1.95237C20.8177 1.80696 20.7598 1.66751 20.6568 1.5647C20.5538 1.46188 20.4141 1.40412 20.2684 1.40412C20.1227 1.40412 19.983 1.46188 19.88 1.5647C19.777 1.66751 19.7191 1.80696 19.7191 1.95237V3.49686C17.654 1.84421 15.0823 0.950467 12.4354 0.965519C9.78843 0.980572 7.22714 1.9035 5.18105 3.57953C3.13495 5.25557 1.72847 7.58278 1.19746 10.1709C0.666452 12.759 1.04321 15.4507 2.26456 17.7945C2.33183 17.9234 2.44766 18.0204 2.58657 18.0641C2.72548 18.1078 2.87609 18.0946 3.00528 18.0275C3.13446 17.9604 3.23163 17.8448 3.27541 17.7061C3.31919 17.5675 3.306 17.4172 3.23873 17.2882C2.20778 15.3245 1.83418 13.0828 2.17268 10.8918C2.51118 8.70071 3.54398 6.67548 5.11972 5.1129Z" fill="#F18929"/>
<path d="M12.5 4.03564C11.3477 4.03695 10.2431 4.49436 9.42831 5.30753C8.61356 6.1207 8.15525 7.22322 8.15394 8.37321V10.5443H7.49048C6.9953 10.5449 6.52055 10.7414 6.1704 11.0909C5.82026 11.4403 5.62332 11.9142 5.6228 12.4084V17.7418C5.62332 18.236 5.82026 18.7098 6.1704 19.0593C6.52055 19.4088 6.9953 19.6053 7.49048 19.6058H17.5099C18.0051 19.6053 18.4799 19.4088 18.83 19.0593C19.1801 18.7098 19.3771 18.236 19.3776 17.7418V12.4084C19.3771 11.9142 19.1801 11.4403 18.83 11.0909C18.4799 10.7414 18.0051 10.5449 17.5099 10.5443H16.8465V8.37321C16.8451 7.22315 16.3867 6.12058 15.5719 5.30741C14.7571 4.49423 13.6523 4.03686 12.5 4.03564ZM9.25257 8.37321C9.25257 7.51357 9.59473 6.68914 10.2038 6.08128C10.8128 5.47342 11.6389 5.13193 12.5002 5.13193C13.3615 5.13193 14.1876 5.47342 14.7966 6.08128C15.4056 6.68914 15.7478 7.51357 15.7478 8.37321V10.5443H9.25257V8.37321ZM18.2789 12.4084V17.7418C18.2787 17.9453 18.1976 18.1404 18.0534 18.2842C17.9093 18.4281 17.7138 18.5091 17.5099 18.5093H7.49048C7.28659 18.5091 7.09113 18.4281 6.94696 18.2842C6.80279 18.1404 6.72168 17.9453 6.72144 17.7418V12.4084C6.72168 12.2049 6.80279 12.0098 6.94696 11.8659C7.09113 11.722 7.28659 11.6411 7.49048 11.6408H17.5099C17.7138 11.6411 17.9093 11.722 18.0534 11.8659C18.1976 12.0098 18.2787 12.2049 18.2789 12.4084Z" fill="#F18929"/>
<path d="M16.0156 16.1715C16.6224 16.1715 17.1143 15.6806 17.1143 15.075C17.1143 14.4694 16.6224 13.9785 16.0156 13.9785C15.4089 13.9785 14.917 14.4694 14.917 15.075C14.917 15.6806 15.4089 16.1715 16.0156 16.1715Z" fill="#F18929"/>
<path d="M12.5 16.1715C13.1068 16.1715 13.5986 15.6806 13.5986 15.075C13.5986 14.4694 13.1068 13.9785 12.5 13.9785C11.8932 13.9785 11.4014 14.4694 11.4014 15.075C11.4014 15.6806 11.8932 16.1715 12.5 16.1715Z" fill="#F18929"/>
<path d="M8.98438 16.1715C9.59113 16.1715 10.083 15.6806 10.083 15.075C10.083 14.4694 9.59113 13.9785 8.98438 13.9785C8.37762 13.9785 7.88574 14.4694 7.88574 15.075C7.88574 15.6806 8.37762 16.1715 8.98438 16.1715Z" fill="#F18929"/>
</svg>
