<svg width="11" height="14" viewBox="0 0 11 14" fill="none" xmlns="http://www.w3.org/2000/svg">
<path d="M5.5 10.625C5.16848 10.625 4.85054 10.4933 4.61612 10.2589C4.3817 10.0245 4.25 9.70652 4.25 9.375C4.25 8.68125 4.80625 8.125 5.5 8.125C5.83152 8.125 6.14946 8.2567 6.38388 8.49112C6.6183 8.72554 6.75 9.04348 6.75 9.375C6.75 9.70652 6.6183 10.0245 6.38388 10.2589C6.14946 10.4933 5.83152 10.625 5.5 10.625ZM9.25 12.5V6.25H1.75V12.5H9.25ZM9.25 5C9.58152 5 9.89946 5.1317 10.1339 5.36612C10.3683 5.60054 10.5 5.91848 10.5 6.25V12.5C10.5 12.8315 10.3683 13.1495 10.1339 13.3839C9.89946 13.6183 9.58152 13.75 9.25 13.75H1.75C1.41848 13.75 1.10054 13.6183 0.866116 13.3839C0.631696 13.1495 0.5 12.8315 0.5 12.5V6.25C0.5 5.55625 1.05625 5 1.75 5H2.375V3.75C2.375 2.9212 2.70424 2.12634 3.29029 1.54029C3.87634 0.95424 4.6712 0.625 5.5 0.625C5.91038 0.625 6.31674 0.705831 6.69589 0.862876C7.07503 1.01992 7.41953 1.25011 7.70971 1.54029C7.99989 1.83047 8.23008 2.17497 8.38712 2.55411C8.54417 2.93326 8.625 3.33962 8.625 3.75V5H9.25ZM5.5 1.875C5.00272 1.875 4.52581 2.07254 4.17417 2.42417C3.82254 2.77581 3.625 3.25272 3.625 3.75V5H7.375V3.75C7.375 3.25272 7.17746 2.77581 6.82583 2.42417C6.47419 2.07254 5.99728 1.875 5.5 1.875Z" fill="black"/>
</svg>
