<svg width="30" height="30" viewBox="0 0 30 30" fill="none" xmlns="http://www.w3.org/2000/svg">
<g clip-path="url(#clip0_216_539)">
<path fill-rule="evenodd" clip-rule="evenodd" d="M15 2.5C12.6554 2.5 10.686 2.624 9.06259 2.98477C7.42502 3.34871 6.06395 3.97 5.01697 5.01697C3.97 6.06395 3.34871 7.42502 2.98477 9.06259C2.624 10.686 2.5 12.6554 2.5 15C2.5 17.3446 2.624 19.314 2.98477 20.9374C3.34871 22.575 3.97 23.936 5.01697 24.983C6.06395 26.03 7.42502 26.6512 9.06259 27.0152C10.686 27.376 12.6554 27.5 15 27.5C17.3446 27.5 19.314 27.376 20.9374 27.0152C22.575 26.6512 23.936 26.03 24.983 24.983C26.03 23.936 26.6512 22.575 27.0152 20.9374C27.376 19.314 27.5 17.3446 27.5 15C27.5 12.6554 27.376 10.686 27.0152 9.06259C26.6512 7.42502 26.03 6.06395 24.983 5.01697C23.936 3.97 22.575 3.34871 20.9374 2.98477C19.314 2.624 17.3446 2.5 15 2.5ZM10 8.75C10 8.05965 10.5596 7.5 11.25 7.5H18.75C19.4404 7.5 20 8.05965 20 8.75C20 9.44035 19.4404 10 18.75 10H16.2635C16.6455 10.5788 16.9069 11.2174 17.0517 11.875H18.75C19.4404 11.875 20 12.4346 20 13.125C20 13.8154 19.4404 14.375 18.75 14.375H17.0517C16.8521 15.2817 16.4307 16.1517 15.7776 16.8792C15.2456 17.472 14.5784 17.9495 13.7915 18.2737L15.8839 20.3661C16.372 20.8542 16.372 21.6457 15.8839 22.1339C15.3957 22.622 14.6042 22.622 14.1161 22.1339L10.5184 18.5362C10.0736 18.0914 10.051 17.4832 10.2406 17.0516C10.4253 16.6309 10.8539 16.2662 11.4276 16.247C12.6207 16.207 13.4167 15.7669 13.9172 15.2094C14.1382 14.9631 14.3137 14.6802 14.4411 14.375H11.25C10.5596 14.375 10 13.8154 10 13.125C10 12.4346 10.5596 11.875 11.25 11.875H14.4411C14.2995 11.5355 14.0982 11.2239 13.8411 10.9591C13.3166 10.4192 12.488 10 11.25 10C10.5596 10 10 9.44035 10 8.75Z" fill="#3CD856"/>
</g>
<defs>
<clipPath id="clip0_216_539">
<rect width="30" height="30" fill="white"/>
</clipPath>
</defs>
</svg>
