<svg width="25" height="25" viewBox="0 0 25 25" fill="none" xmlns="http://www.w3.org/2000/svg">
<path d="M3.125 6.24984V17.7082C3.125 19.4341 4.52411 20.8332 6.25 20.8332H20.8333C21.4086 20.8332 21.875 20.3668 21.875 19.7915V16.6665M3.125 6.24984C3.125 7.40043 4.05774 8.33317 5.20833 8.33317H19.7917M3.125 6.24984C3.125 5.09924 4.05774 4.1665 5.20833 4.1665H18.75C19.3253 4.1665 19.7917 4.63288 19.7917 5.20817V8.33317M21.875 16.6665H18.75C17.5994 16.6665 16.6667 15.7338 16.6667 14.5832C16.6667 13.4325 17.5994 12.4998 18.75 12.4998H21.875M21.875 16.6665V12.4998M19.7917 8.33317H20.8333C21.4086 8.33317 21.875 8.79955 21.875 9.37484V12.4998" stroke="#F18929" stroke-width="2.08333" stroke-linecap="round" stroke-linejoin="round"/>
</svg>
